\relax 
\ifx\hyper@anchor\@undefined
\global \let \oldcontentsline\contentsline
\gdef \contentsline#1#2#3#4{\oldcontentsline{#1}{#2}{#3}}
\global \let \oldnewlabel\newlabel
\gdef \newlabel#1#2{\newlabelxx{#1}#2}
\gdef \newlabelxx#1#2#3#4#5#6{\oldnewlabel{#1}{{#2}{#3}}}
\AtEndDocument{\let \contentsline\oldcontentsline
\let \newlabel\oldnewlabel}
\else
\global \let \hyper@last\relax 
\fi

\@writefile{toc}{\contentsline {section}{\numberline {1}Overview}{1}{section.1}}
\@writefile{toc}{\contentsline {section}{\numberline {2}Programming}{1}{section.2}}
\@writefile{lof}{\contentsline {figure}{\numberline {1}{\ignorespaces Structure of implementations\relax }}{2}{figure.caption.1}}
\@writefile{toc}{\contentsline {section}{\numberline {3}Experiments}{3}{section.3}}
\@writefile{toc}{\contentsline {section}{\numberline {4}Discussion}{3}{section.4}}
\@writefile{lof}{\contentsline {figure}{\numberline {2}{\ignorespaces Parallel Performance\relax }}{4}{figure.caption.2}}
\@writefile{toc}{\contentsline {section}{\numberline {5}Conclusion}{5}{section.5}}
